ANOVA mit Messwiederholung
…
Klassisch

Die Daten sind in der Datei runners.sav oder im Paket costatcompanion unter demselben Namen. Der Datensatz enthält drei Variablen: Die ID der Läufer (id), den für den Lauf gehörten Typ von Musik (music_type) und das nach dem Lauf eingeschätzte Durchhaltevermögen während des Laufes (endurance). Wir untersuchen also eine einfaktorielle Varianzanalyse mit dem Innersubjektfaktor “Music Type” mit drei Faktorstufen (“bad”, “neutral”, und “favorite”).

runners

## # A tibble: 153 x 3
##    id    music_type endurance
##    <chr> <fct>          <dbl>
##  1 1     bad                4
##  2 1     neutral           26
##  3 1     favorite          24
##  4 2     bad               10
##  5 2     neutral           17
##  6 2     favorite          24
##  7 3     bad                8
##  8 3     neutral           11
##  9 3     favorite          30
## 10 4     bad               10
## # ... with 143 more rows
…
