Data Wrangling
…
Datensätze sollten so formatiert sein, dass jede Spalte eine Variable darstellt. Jede Zeile soll eine Beobachtung sein und jede Zelle schlielich ein einzelner Wert. Jeder SPSS-Nutzer wird sich nun wundern und denken “Was will der Typ eigentlich? Jede Zeile meines Datensatzes steht doch für einen Probanden, wie ich es im Statistik-Seminar gelernt habe. Das ist doch schon im richtigen Format (?)” Aber leider nein, denn für einen Probanden kann man mehrere Beobachtungen haben. Um im Tidyverse (und im Großteil von R) zu arbeiten, müssen die Daten jedoch tidy sein. Schauen wir uns einmal an, was ich damit meine.

Datensatz einlesen

Zu Beginn laden wir einige der bereits bekannten Pakete. haven gehört mit zum Tidyverse, wird automatisch installiert, wenn man das Tidyverse installiert, jedoch aber nicht automatisch geladen, weil es ein zu spezielles Paket ist. Mit haven können nämlich SAS-, Stata- und (jetzt kommt’s) SPSS-Datensätze eingelesen werden. Im Ordner data gibt es den Datensatz wrangling.sav. Wir laden ihn mit der passend benannten Funktion read_spss("<FILE-PATH>").

library(tidyverse)
library(haven)
library(janitor)
library(skimr)

read_spss("data/wrangling.sav")

## # A tibble: 43 x 8
##       ID   Age gender treatment BMI_1 BMI_2 BMI_3 BMI_4
##    <dbl> <dbl>  <dbl> <dbl+lbl> <dbl> <dbl> <dbl> <dbl>
##  1     1    54      1   0 [TAU]  26.8  27.2  27.8  28.7
##  2     2    52      0   1 [EG]   NA    NA    NA    NA  
##  3     3    54      1   1 [EG]   NA    NA    NA    NA  
##  4     4    35      1   1 [EG]   28.4  NA    NA    NA  
##  5     5    50      0   0 [TAU]  34.0  35.7  35.6  35.9
##  6     6    20      0   1 [EG]   20.7  20.7  20.9  20.7
##  7     7    45      1   0 [TAU]  26.2  26.1  25.7  25.5
##  8     8    37      1   1 [EG]   35.7  35.5  35.6  36.0
##  9     9    57      1   1 [EG]   34.2  33.9  33.4  33.7
## 10    10    61      0   1 [EG]   16.9  17.2  17.3  17.3
## # ... with 33 more rows
…
Im Prinzip sieht das sehr ähnlich aus, jedoch fällt sofort auf, dass der Output viel länger ist und alle 43 Zeilen umfasst. Meistens möchte man die alle gar nicht sehen. Hinzu kommt, dass auch alle Variablen angezeigt werden würden. In diesem Fall ist das kein Problem, weil ich nur acht habe, aber bei 200 ist das schon etwas anderes. Außerdem sind in der Variable treatment alle von mir mühsam in SPSS eingegebenen Wertelabels weg – welche eine Gemeinheit! Und dann habe ich noch nicht mal eine Ahnung davon, welchen Datentyp meine Variablen enthalten. Unerhört! Hier wird direkt deutlich, warum man Fan des Tidyverse werden könnte.

Alles in allem haben wir hier einen Datensatz mit 43 Probanden, deren Alter, Geschlecht und Behandlung wir erfasst haben, so wie den BMI für 4 konsekutive Messungen.

Variablennamen bereinigen

Uff, ist das hässlich! Nach allem, was wir über stilsichere Objektnamen gelernt haben, sind wir über die Benennung der Variablen überhaupt nicht glücklich. Das müssen wir ändern, gut, dass wir das Paket janitor haben. Zunächst speichern wir den Datensatz als ein Objekt (in diesem Falle wrangling_data), damit wir es nicht dauern neu einlesen müssen und wenden dann die Funktion clean_names() an.

wrangling_data <- clean_names(read_spss("data/wrangling.sav"))

wrangling_data

## # A tibble: 43 x 8
##       id   age gender treatment bmi_1 bmi_2 bmi_3 bmi_4
##    <dbl> <dbl>  <dbl> <dbl+lbl> <dbl> <dbl> <dbl> <dbl>
##  1     1    54      1   0 [TAU]  26.8  27.2  27.8  28.7
##  2     2    52      0   1 [EG]   NA    NA    NA    NA  
##  3     3    54      1   1 [EG]   NA    NA    NA    NA  
##  4     4    35      1   1 [EG]   28.4  NA    NA    NA  
##  5     5    50      0   0 [TAU]  34.0  35.7  35.6  35.9
##  6     6    20      0   1 [EG]   20.7  20.7  20.9  20.7
##  7     7    45      1   0 [TAU]  26.2  26.1  25.7  25.5
##  8     8    37      1   1 [EG]   35.7  35.5  35.6  36.0
##  9     9    57      1   1 [EG]   34.2  33.9  33.4  33.7
## 10    10    61      0   1 [EG]   16.9  17.2  17.3  17.3
## # ... with 33 more rows
…
In R arbeiten wir mit “richtigen” Faktoren. In der Variable gender soll also die Bezeichnung “weiblich” oder “männlich” direkt hinterlegt werden. Wie kommen wir nun von unseren Zahlen zu den Faktoren? Mit der Funktion factor(), die nativer Bestandteil von R ist. Die Funktion benötigt von uns die Ausgangsvariable, die Levels und die Labels, die wir gerne vergeben würden. Die generelle Syntax ist

factor(<VARIABLE>, levels = c("<LEVEL1>", "<LEVEL2>"), labels = c("<LABEL1>", "<LABEL2>"))

Um eine bestehende Variable zu modifizieren, oder zu mutieren, benutzen wir die Funktion mutate, der wir als erstes Argument unseren Datensatz nennen und dann die Variable, die wir verändern wollen.

mutate(wrangling_data, gender = factor(gender, levels = c(0, 1), labels = c("Female", "Male")))

## # A tibble: 43 x 8
##       id   age gender treatment bmi_1 bmi_2 bmi_3 bmi_4
##    <dbl> <dbl> <fct>  <dbl+lbl> <dbl> <dbl> <dbl> <dbl>
##  1     1    54 Male     0 [TAU]  26.8  27.2  27.8  28.7
##  2     2    52 Female   1 [EG]   NA    NA    NA    NA  
##  3     3    54 Male     1 [EG]   NA    NA    NA    NA  
##  4     4    35 Male     1 [EG]   28.4  NA    NA    NA  
##  5     5    50 Female   0 [TAU]  34.0  35.7  35.6  35.9
##  6     6    20 Female   1 [EG]   20.7  20.7  20.9  20.7
##  7     7    45 Male     0 [TAU]  26.2  26.1  25.7  25.5
##  8     8    37 Male     1 [EG]   35.7  35.5  35.6  36.0
##  9     9    57 Male     1 [EG]   34.2  33.9  33.4  33.7
## 10    10    61 Female   1 [EG]   16.9  17.2  17.3  17.3
## # ... with 33 more rows
…
# Der Befehl
f(x)

# ist identisch mit
x %>% 
  f()

Wo ist nun der Nutzen dabei? Der Befehl wird länger und enthält diesen grausam schreibbaren Pipe-Operator! Der Vorteil liegt darin, dass wir die Syntax besser verstehen, indem wir den Pipe als “dann” lesen können. Im obigen Beispiel kann man den Befehl lesen als “Nimm x und dann mache Funktion f()”. Der Vorteil wird noch deutlicher, wenn wir uns unserem Datensatz zuwenden. Wir wollten in dem Datensatz die Variable gender als Faktor definieren. Wenden wir nun den Pipe (%>%) an, ergibt sich dieser Befehl:

wrangling_data %>% 
  mutate(gender = factor(gender,
                         levels = c(0,1),
                         labels = c("Female", "Male")))

## # A tibble: 43 x 8
##       id   age gender treatment bmi_1 bmi_2 bmi_3 bmi_4
##    <dbl> <dbl> <fct>  <dbl+lbl> <dbl> <dbl> <dbl> <dbl>
##  1     1    54 Male     0 [TAU]  26.8  27.2  27.8  28.7
##  2     2    52 Female   1 [EG]   NA    NA    NA    NA  
##  3     3    54 Male     1 [EG]   NA    NA    NA    NA  
##  4     4    35 Male     1 [EG]   28.4  NA    NA    NA  
##  5     5    50 Female   0 [TAU]  34.0  35.7  35.6  35.9
##  6     6    20 Female   1 [EG]   20.7  20.7  20.9  20.7
##  7     7    45 Male     0 [TAU]  26.2  26.1  25.7  25.5
##  8     8    37 Male     1 [EG]   35.7  35.5  35.6  36.0
##  9     9    57 Male     1 [EG]   34.2  33.9  33.4  33.7
## 10    10    61 Female   1 [EG]   16.9  17.2  17.3  17.3
## # ... with 33 more rows

Das Ergebnis ist dasselbe wie in der ersten Version dieses Befehls, jedoch kann man ihn so besser lesen und verstehen: “Nimm den Datensatz wrangling_data und wende die Funktion mutate an.” Von nun an, werde ich den Pipe-Operator immer verwenden.

Wichtig zu beachten ist, dass die Änderung noch nirgendwo gespeichert wurde. Wir sehen unseren Erfolg zwar in der Konsole, doch wenn wir den Datensatz noch einmal aufrufen stellen wir fest, dass gender immer noch als 0 und 1 kodiert sind.

wrangling_data

## # A tibble: 43 x 8
##       id   age gender treatment bmi_1 bmi_2 bmi_3 bmi_4
##    <dbl> <dbl>  <dbl> <dbl+lbl> <dbl> <dbl> <dbl> <dbl>
##  1     1    54      1   0 [TAU]  26.8  27.2  27.8  28.7
##  2     2    52      0   1 [EG]   NA    NA    NA    NA  
##  3     3    54      1   1 [EG]   NA    NA    NA    NA  
##  4     4    35      1   1 [EG]   28.4  NA    NA    NA  
##  5     5    50      0   0 [TAU]  34.0  35.7  35.6  35.9
##  6     6    20      0   1 [EG]   20.7  20.7  20.9  20.7
##  7     7    45      1   0 [TAU]  26.2  26.1  25.7  25.5
##  8     8    37      1   1 [EG]   35.7  35.5  35.6  36.0
##  9     9    57      1   1 [EG]   34.2  33.9  33.4  33.7
## 10    10    61      0   1 [EG]   16.9  17.2  17.3  17.3
## # ... with 33 more rows

Um Änderungen in R dauerhaft zu speichern, müssen wir sie einem Objekt zuweisen. Weil wir den Datensatz verbessert haben, spricht nichts dagegen, den alten Datensatz mit dem neuen zu überschreiben. Wir können unsere Änderung also mit <- den Namen wrangling_data zuweisen. Rufen wir die Daten nun erneut auf, ist die erfolgreiche Änderung gespeichert.

wrangling_data <- wrangling_data %>% 
  mutate(gender = factor(gender, 
                         levels = c(0, 1),
                         labels = c("Female", "Male")))

wrangling_data

## # A tibble: 43 x 8
##       id   age gender treatment bmi_1 bmi_2 bmi_3 bmi_4
##    <dbl> <dbl> <fct>  <dbl+lbl> <dbl> <dbl> <dbl> <dbl>
##  1     1    54 Male     0 [TAU]  26.8  27.2  27.8  28.7
##  2     2    52 Female   1 [EG]   NA    NA    NA    NA  
##  3     3    54 Male     1 [EG]   NA    NA    NA    NA  
##  4     4    35 Male     1 [EG]   28.4  NA    NA    NA  
##  5     5    50 Female   0 [TAU]  34.0  35.7  35.6  35.9
##  6     6    20 Female   1 [EG]   20.7  20.7  20.9  20.7
##  7     7    45 Male     0 [TAU]  26.2  26.1  25.7  25.5
##  8     8    37 Male     1 [EG]   35.7  35.5  35.6  36.0
##  9     9    57 Male     1 [EG]   34.2  33.9  33.4  33.7
## 10    10    61 Female   1 [EG]   16.9  17.2  17.3  17.3
## # ... with 33 more rows

Automatisch definieren

Wurden in SPSS bereits die richtigen Wertelabels vergeben, wie für die Variable treatment, können wir uns den Weg etwas abkürzen. Im Datensatz ist zu sehen, dass sowohl Levels als auch Label des Faktors bereits hinterlegt sind (daher der komische Datentyp <dbl + lbl>). Mit der Funktion as_factor() wird die Variable automatisch als Faktor definiert.

wrangling_data <- wrangling_data %>% 
  mutate(treatment = as_factor(treatment))

wrangling_data

## # A tibble: 43 x 8
##       id   age gender treatment bmi_1 bmi_2 bmi_3 bmi_4
##    <dbl> <dbl> <fct>  <fct>     <dbl> <dbl> <dbl> <dbl>
##  1     1    54 Male   TAU        26.8  27.2  27.8  28.7
##  2     2    52 Female EG         NA    NA    NA    NA  
##  3     3    54 Male   EG         NA    NA    NA    NA  
##  4     4    35 Male   EG         28.4  NA    NA    NA  
##  5     5    50 Female TAU        34.0  35.7  35.6  35.9
##  6     6    20 Female EG         20.7  20.7  20.9  20.7
##  7     7    45 Male   TAU        26.2  26.1  25.7  25.5
##  8     8    37 Male   EG         35.7  35.5  35.6  36.0
##  9     9    57 Male   EG         34.2  33.9  33.4  33.7
## 10    10    61 Female EG         16.9  17.2  17.3  17.3
## # ... with 33 more rows

Super, das sieht schön aus, alle Faktoren sind als richtige faktoren definiert worden. Aber was ist das? Die Bezeichnungen für die Variable treatment sind “TAU” und “EG”, die für “Treatment as Usual” und “Experimental Group” stehen. Mmh, eigentlich hätte ich gerne “CG” für “Control Group” anstatt “TAU”. Auch da können wir etwas machen. Wir wollen einen Faktor umkodieren und bedienen uns deshalb der Funktion fct_recode(). Da wir eine Variable verändern wollen, müssen wir sie wieder “mutieren”.

wrangling_data <-  wrangling_data %>% 
  mutate(treatment = fct_recode(treatment,
                                "CG" = "TAU"))

wrangling_data

## # A tibble: 43 x 8
##       id   age gender treatment bmi_1 bmi_2 bmi_3 bmi_4
##    <dbl> <dbl> <fct>  <fct>     <dbl> <dbl> <dbl> <dbl>
##  1     1    54 Male   CG         26.8  27.2  27.8  28.7
##  2     2    52 Female EG         NA    NA    NA    NA  
##  3     3    54 Male   EG         NA    NA    NA    NA  
##  4     4    35 Male   EG         28.4  NA    NA    NA  
##  5     5    50 Female CG         34.0  35.7  35.6  35.9
##  6     6    20 Female EG         20.7  20.7  20.9  20.7
##  7     7    45 Male   CG         26.2  26.1  25.7  25.5
##  8     8    37 Male   EG         35.7  35.5  35.6  36.0
##  9     9    57 Male   EG         34.2  33.9  33.4  33.7
## 10    10    61 Female EG         16.9  17.2  17.3  17.3
## # ... with 33 more rows
…
An dieser Stelle machen wir noch einmal den Sprung zum Anfang der Seite. Wir haben von “tidy data” gelesen, also der Ansicht, dass eine Variable in eine Spalte, eine Beobachtung in eine Zeile und ein Wert in eine Zelle gehört. Ich habe bereits gespoilert, dass diese Daten nicht tidy sind – warum? Weil ich für die Messung des BMI ganze vier Beobachtungen pro Proband habe, also vier Beobachtungen pro Zeile. Was uns allerdings vorschwebt ist ein Datensatz, in dem jede Beobachtung auch tatsächlich nur eine Zeile ist, somit hätten wir konsequenterweise vier Zeilen pro Proband. Dem gewohnten SPSS-Nutzer pfeifen mittlerweile bestimmt die Ohren, aber nur so ergibt die Datenstruktur eigentlich Sinn. Denn weche Variable taucht im Datensatz nirgendwo auf? Wir haben eindeutig longitudinale Daten, aber nirgendwo die Zeit hinterlegt! Obwohl, eigentlich ist die hinterlegt, aber an einer Stelle, an die wir nicht drankommen, nämlich im Variablennamen selbst (als _1, _2, usw.).

Diese Datenstruktur nennt man wide format, weil sie breit ist. Wir hätten gerne mehrere Zeilen pro Proband, die Daten werden also länger, und die entstehende längere und tidy Datenstruktur nennt man long format. Um diese zu bekommen, müssen wir die Daten “länger machen”, am besten mit der Funktion pivot_longer(). Dieser müssen wir angeben, welche Variablen wir als eine lange haben wollen, welchen Namen wir für die neu erstellte Variable verwenden möchten und unter welchem Namen die Werte abgespeichert werden sollen. Die neu erstellte Variable ist in unserem Fall die Zeit, wir könnten sie “measurement” nennen, und die Variable, in der die Werte stehen “bmi”. Dank unserer einheitlichen Benennung, können wir angeben, dass unsere Variable “measurement” ein nerviges Präfix enthält, nämlich “bmi_”, welches automatisch gelöscht werden kann.

wrangling_data <- wrangling_data %>% 
  pivot_longer(
    cols = bmi_1:bmi_4,
    names_to = "measurement",
    names_prefix = "bmi_",
    values_to = "bmi"
  )

wrangling_data

## # A tibble: 172 x 6
##       id   age gender treatment measurement   bmi
##    <dbl> <dbl> <fct>  <fct>     <chr>       <dbl>
##  1     1    54 Male   CG        1            26.8
##  2     1    54 Male   CG        2            27.2
##  3     1    54 Male   CG        3            27.8
##  4     1    54 Male   CG        4            28.7
##  5     2    52 Female EG        1            NA  
##  6     2    52 Female EG        2            NA  
##  7     2    52 Female EG        3            NA  
##  8     2    52 Female EG        4            NA  
##  9     3    54 Male   EG        1            NA  
## 10     3    54 Male   EG        2            NA  
## # ... with 162 more rows

Leider ist die Variable measurement jetzt noch als Zeichenfolge (“chr”) abgespeichert, wir hätten sie aber gerne nummerisch. Das lässt sich schnell mit einem mutate lösen.

wrangling_data <- wrangling_data %>% 
  mutate(measurement = as.numeric(measurement))

wrangling_data

## # A tibble: 172 x 6
##       id   age gender treatment measurement   bmi
##    <dbl> <dbl> <fct>  <fct>           <dbl> <dbl>
##  1     1    54 Male   CG                  1  26.8
##  2     1    54 Male   CG                  2  27.2
##  3     1    54 Male   CG                  3  27.8
##  4     1    54 Male   CG                  4  28.7
##  5     2    52 Female EG                  1  NA  
##  6     2    52 Female EG                  2  NA  
##  7     2    52 Female EG                  3  NA  
##  8     2    52 Female EG                  4  NA  
##  9     3    54 Male   EG                  1  NA  
## 10     3    54 Male   EG                  2  NA  
## # ... with 162 more rows
…
wrangling_complete

## # A tibble: 172 x 6
##       id   age gender treatment measurement   bmi
##    <dbl> <dbl> <fct>  <fct>           <dbl> <dbl>
##  1     1    54 Male   CG                  1  26.8
##  2     1    54 Male   CG                  2  27.2
##  3     1    54 Male   CG                  3  27.8
##  4     1    54 Male   CG                  4  28.7
##  5     2    52 Female EG                  1  NA  
##  6     2    52 Female EG                  2  NA  
##  7     2    52 Female EG                  3  NA  
##  8     2    52 Female EG                  4  NA  
##  9     3    54 Male   EG                  1  NA  
## 10     3    54 Male   EG                  2  NA  
## # ... with 162 more rows
…
