Daten-Import
…
read_csv("data/csv_data.csv")

## Parsed with column specification:
## cols(
##   id = col_double(),
##   age = col_double(),
##   sex = col_character(),
##   group = col_character(),
##   test_score = col_double(),
##   bdi = col_double(),
##   well_being = col_double()
## )

## # A tibble: 530 x 7
##       id   age sex    group     test_score   bdi well_being
##    <dbl> <dbl> <chr>  <chr>          <dbl> <dbl>      <dbl>
##  1     1    24 Male   Waitlist        14.8     7         50
##  2     2    47 Male   Waitlist        19.0     4         25
##  3     3    24 Female Placebo         14.6     6         42
##  4     4    28 Female Waitlist        15.4     8         59
##  5     5    43 Male   Waitlist        16.2     3         12
##  6     6    25 Male   Treatment       22.0     8         20
##  7     7    22 Female Placebo         16.0     7         33
##  8     8    17 Female Treatment       22.4     5         14
##  9     9    44 Female Treatment       23.0     3         32
## 10    10    20 Female Waitlist        16.5     8         37
## # ... with 520 more rows
…
## Parsed with column specification:
## cols(
##   id = col_double(),
##   age = col_double(),
##   sex = col_character(),
##   group = col_character(),
##   test_score = col_double(),
##   bdi = col_double(),
##   well_being = col_double()
## )

csv_data

## # A tibble: 530 x 7
##       id   age sex    group     test_score   bdi well_being
##    <dbl> <dbl> <chr>  <chr>          <dbl> <dbl>      <dbl>
##  1     1    24 Male   Waitlist        14.8     7         50
##  2     2    47 Male   Waitlist        19.0     4         25
##  3     3    24 Female Placebo         14.6     6         42
##  4     4    28 Female Waitlist        15.4     8         59
##  5     5    43 Male   Waitlist        16.2     3         12
##  6     6    25 Male   Treatment       22.0     8         20
##  7     7    22 Female Placebo         16.0     7         33
##  8     8    17 Female Treatment       22.4     5         14
##  9     9    44 Female Treatment       23.0     3         32
## 10    10    20 Female Waitlist        16.5     8         37
## # ... with 520 more rows
…
## Using ',' as decimal and '.' as grouping mark. Use read_delim() for more control.

## Parsed with column specification:
## cols(
##   id = col_double(),
##   age = col_double(),
##   sex = col_character(),
##   group = col_character(),
##   test_score = col_double(),
##   bdi = col_double(),
##   well_being = col_double()
## )

## # A tibble: 530 x 7
##       id   age sex    group     test_score   bdi well_being
##    <dbl> <dbl> <chr>  <chr>          <dbl> <dbl>      <dbl>
##  1     1    24 Male   Waitlist        14.8     7         50
##  2     2    47 Male   Waitlist        19.0     4         25
##  3     3    24 Female Placebo         14.6     6         42
##  4     4    28 Female Waitlist        15.4     8         59
##  5     5    43 Male   Waitlist        16.2     3         12
##  6     6    25 Male   Treatment       22.0     8         20
##  7     7    22 Female Placebo         16.0     7         33
##  8     8    17 Female Treatment       22.4     5         14
##  9     9    44 Female Treatment       23.0     3         32
## 10    10    20 Female Waitlist        16.5     8         37
## # ... with 520 more rows

Auch hier wieder nicht vergessen, den importierten Datensatz einem Objekt zuzuweisen!

Excel (.xlsx)

Excel-Dateien könnnen mit der Funktion read_excel() geöffnet werden.

read_excel("data/excel_data.xlsx")

## # A tibble: 530 x 7
##       id   age sex    group     test_score   bdi well_being
##    <dbl> <dbl> <chr>  <chr>          <dbl> <dbl>      <dbl>
##  1     1    24 Male   Waitlist        14.8     7         50
##  2     2    47 Male   Waitlist        19.0     4         25
##  3     3    24 Female Placebo         14.6     6         42
##  4     4    28 Female Waitlist        15.4     8         59
##  5     5    43 Male   Waitlist        16.2     3         12
##  6     6    25 Male   Treatment       22.0     8         20
##  7     7    22 Female Placebo         16.0     7         33
##  8     8    17 Female Treatment       22.4     5         14
##  9     9    44 Female Treatment       23.0     3         32
## 10    10    20 Female Waitlist        16.5     8         37
## # ... with 520 more rows

Auch hier wieder nicht vergessen, den importierten Datensatz einem Objekt zuzuweisen!

SPSS (.sav)

SPSS-Dateien können mit der Funktion read_spss() geöffnet werden.

read_spss("data/spss_data.sav")

## # A tibble: 530 x 7
##       id   age        sex         group test_score   bdi well_being
##    <dbl> <dbl>  <dbl+lbl>     <dbl+lbl>      <dbl> <dbl>      <dbl>
##  1     1    21 1 [Male]   1 [Waitlist]        19.5     6         37
##  2     2    18 2 [Female] 2 [Treatment]       25.1     1         32
##  3     3    37 1 [Male]   1 [Waitlist]        18.4     5         37
##  4     4    36 1 [Male]   1 [Waitlist]        18.4     6         55
##  5     5    45 1 [Male]   1 [Waitlist]        23.7     3         38
##  6     6    37 2 [Female] 3 [Placebo]         13.4     3         36
##  7     7    32 1 [Male]   2 [Treatment]       18.5     2         21
##  8     8    32 2 [Female] 3 [Placebo]         25.4     3         30
##  9     9    20 2 [Female] 2 [Treatment]       15.3     3         32
## 10    10    41 1 [Male]   1 [Waitlist]        20.1     1         16
## # ... with 520 more rows

Die Variablen sex und group sehen relativ komisch aus, weil hier anscheindn Zahlen und Worte abgespeichert wurden. In SPSS speichert man Faktoren, indem einem selbst gewähltem Faktor-Level ein -Label gegeben wird. Diese behält read_spss() freundlicherweise beide für uns (zu erkennen am Typ <dbl + lbl>), damit wir damit später selbst umgehen können.

R (.rds)

Das Beste kommt zum Schluss: RDS-Dateien können mit read_rds() geöffnet werden.

read_rds("data/rds_data.rds")

## # A tibble: 530 x 7
##       id   age sex    group     test_score   bdi well_being
##    <int> <dbl> <fct>  <fct>          <dbl> <dbl>      <dbl>
##  1     1    21 Male   Waitlist        19.5     6         37
##  2     2    18 Female Treatment       25.1     1         32
##  3     3    37 Male   Waitlist        18.4     5         37
##  4     4    36 Male   Waitlist        18.4     6         55
##  5     5    45 Male   Waitlist        23.7     3         38
##  6     6    37 Female Placebo         13.4     3         36
##  7     7    32 Male   Treatment       18.5     2         21
##  8     8    32 Female Placebo         25.4     3         30
##  9     9    20 Female Treatment       15.3     3         32
## 10    10    41 Male   Waitlist        20.1     1         16
## # ... with 520 more rows
…
