Datenvisualisierung
…
Hier können wir auf der \(x\)-Achse die Effektstärke der Original-Arbeit sehen (in \(r\)) und auf der \(y\)-Achse die Effektstärke der Replikations-Studie. Zudem wurde farblich kenntlich gemacht, ob eine Studie in der Replikation signifikant, also ob \(p < 0.05\) war. Dann wurde die Größe der einzelnen Datenpunkte skaliert anhand der Power der Replikationsstudie, wir haben Fransenachsen, die uns die Verteilung der Studien anzeigen und dann sind noch zusätzlich Kerndichteschätzungen der Verteilulng der Effektstärken für die Original- und Replikationsstudien am Rand der Abbildung angegeben.

Auch wenn diese Abbildung sehr kompliziert zu erstellen scheint, und es mit herkömmlichen Programmen unmöglich wäre, eine solche Abbildung in einem Schritt und reproduzierbar zu erstellen, können wir diese Abbildung mit ggplot2 im Handumdrehen auf unseren Bildschirm zaubern. Die Grundlage einer jeden Abbildung sind natürlich Daten. Die Original-Daten der Autoren kann man sich beim Open Science Framework herunterladen und sich am data cleaning versuchen. Eine abgespeckte Version der Daten, die alle nötigen Variablen enthält, findet sich aber auch im costatcompanion als reproducibility_project.

library(costatcompanion)

reproducibility_project

## # A tibble: 168 x 15
##    study_title_o journal_o first_author senior_author_o institution_pre~
##    <chr>         <chr>     <chr>        <chr>                      <dbl>
##  1 Tracing atte~ JEPLMC    Roelofs      Roelofs                     2.52
##  2 Now you see ~ JEPLMC    Morris       Morris                      3.27
##  3 Working memo~ JEPLMC    Liefooghe    Vandierendonck              2.57
##  4 Accelerated ~ JEPLMC    Storm        Bjork                       5.16
##  5 The intermix~ JEPLMC    Mitchell     Hall                        2.52
##  6 A single-sys~ JEPLMC    Berry        Henson                      4.13
##  7 Modeling dis~ JEPLMC    Beaman       Beaman                      2.22
##  8 Stereotypes ~ JEPLMC    Dodson       Dodson                      4.36
##  9 Prime diagno~ JEPLMC    Weidemann    Shiffrin                    4.5 
## 10 Across-notat~ JEPLMC    Ganor-Stern  Tzelgov                     1.28
## # ... with 158 more rows, and 10 more variables:
## #   institution_prestige_senior_author_o <dbl>, surprising_result_o <dbl>,
## #   exciting_result_o <dbl>, pval_original <dbl>, pval_replication <dbl>,
## #   es_original <dbl>, es_replication <dbl>, power_r <dbl>, sig_original <fct>,
## #   sig_replication <fct>

Basis-Plot

Beginnen wir mit dem Basis-Plot in der Mitte. Da für einige Studien keine Effektstärken berechnet werden konnten, filtern wir uns nur die Fälle raus, bei denen wir eine Effektstärke für beide Messungen haben.

reproducibility_complete <- reproducibility_project %>% 
  filter(!is.na(es_original) & !is.na(es_replication))

reproducibility_complete

## # A tibble: 97 x 15
##    study_title_o journal_o first_author senior_author_o institution_pre~
##    <chr>         <chr>     <chr>        <chr>                      <dbl>
##  1 Tracing atte~ JEPLMC    Roelofs      Roelofs                     2.52
##  2 Now you see ~ JEPLMC    Morris       Morris                      3.27
##  3 Working memo~ JEPLMC    Liefooghe    Vandierendonck              2.57
##  4 Accelerated ~ JEPLMC    Storm        Bjork                       5.16
##  5 The intermix~ JEPLMC    Mitchell     Hall                        2.52
##  6 A single-sys~ JEPLMC    Berry        Henson                      4.13
##  7 Modeling dis~ JEPLMC    Beaman       Beaman                      2.22
##  8 Stereotypes ~ JEPLMC    Dodson       Dodson                      4.36
##  9 Across-notat~ JEPLMC    Ganor-Stern  Tzelgov                     1.28
## 10 Attractor dy~ JEPLMC    Mirman       Magnuson                    3.16
## # ... with 87 more rows, and 10 more variables:
## #   institution_prestige_senior_author_o <dbl>, surprising_result_o <dbl>,
## #   exciting_result_o <dbl>, pval_original <dbl>, pval_replication <dbl>,
## #   es_original <dbl>, es_replication <dbl>, power_r <dbl>, sig_original <fct>,
## #   sig_replication <fct>
…
