Einfaktorielle ANOVA
…
Begeben wir uns ins Phantasialand in Brühl bei Köln. Auch Forscher brauchen mal Spaß – und wo könnte man sich den besser holen? Natürlich lässt sich das Bestreben nach wissenschaftlichem Fortschritt auch bei Besuchen von Freizeitparks nicht abstellen. So fällt uns beispielsweise auf, dass selbst im Phantasialand, nicht alle Besucher gleich viel Spaß haben. Es gibt sehr viele, die mit lachenden Gesichtern durch den Park laufen, doch auch jene, die ihre Mundwinkel der Schwerkraft hingeben. Woran könnte das liegen? Eine Hypothese könnte doch das Gewicht des Handgepäcks sein. Vielleicht haben Besucher mit wenig Handgepäck mehr Spaß, weil sie weniger zu tragen haben? Wir möchten also untersuchen, ob die Größe des Handgepäcks einen Einfluss auf die Freude der Besucher hat. Dazu haben wir viele Besucher mit vier unterschiedlichen Arten von Handgepäck nach ihrer derzeitigen empfundenen Freude gefragt.

Klassisch

Die Daten dieser kleinen Erhebung sind in der Datei phantasialand.sav. Die Spalte id ist die ID des Besuchers, in der Spalte backpack ist angegeben, mit welchem Handgepäck der Besucher oder die Besucherin unterwegs war. Wir unterscheiden vier Faktorstufen: “None” = kein Handgepäck, “Light” = leichtes, “Heavy” steht für schweres und “Handcart” steht für Bollerwagen. In der Spalte joy wurde die zu dem Zeitpunkt empfundene Freude des Besuchers eingetragen.

phantasialand <- read_spss("data/phantasialand.sav")

phantasialand <- phantasialand %>% 
  mutate(backpack = as_factor(backpack))

phantasialand

## # A tibble: 186 x 3
##    id    backpack   joy
##    <chr> <fct>    <dbl>
##  1 1     Light        5
##  2 2     Light        7
##  3 3     Handcart     3
##  4 4     Heavy        6
##  5 5     Heavy        3
##  6 6     Heavy        6
##  7 7     Handcart     4
##  8 8     None        10
##  9 9     None         9
## 10 10    Handcart     5
## # ... with 176 more rows
…
