Exploratorische Faktorenanalyse
…
Wir wollen nun herausfinden, welche nicht beobachteten Fakoren hinter diesen 15 Fragen, oder auch Items, stecken könnten.

Voraussetzungen

Wir brauchen Leute, Leute, Leute! Die mit Abstand wichtigste Voraussetzung ist die Stichprobengröße, d.h. alles ab 300 ist okay, ab 1000 super – alles darunter ist wirklich schlech (Field, 2018). Zudem gibt es das Kaiser-Meyer-Olkin-Kriterium (KMO), das nahe 1 sein sollte. Eine einflussreiche Quelle scheinen hier Hutcheson & Sofroniou (1999) zu sein, die “cut-offs” bezüglich akzeptabler KMO-Werte gebildet haben. Nach ihnen sollte der KMO definitiv größer .70 sein.

Zudem gibt es den Bartlett-Test, der die Hypothese prüft, dass die Korrelationsmatrix der Items eine Einheitsmatrix ist. Eine Einheitsmatrix hat auf der Diagonalen Einsen und an allen anderen Stellen Nullen. Eine Korrelationsmatrix, die so aussehen würde, läge nahe, dass die Variablen nicht miteinander korrelieren. Die Basis für eine Faktorenanalyse sind aber Korrelationen.

Daten

Die Daten sind wie immer im Daten-Ordner des Git-Repositories (party.sav), oder im costatcompanion zu finden.

party

## # A tibble: 320 x 16
##    id    item_1 item_2 item_3 item_4 item_5 item_6 item_7 item_8 item_9 item_10
##    <chr>  <dbl>  <dbl>  <dbl>  <dbl>  <dbl>  <dbl>  <dbl>  <dbl>  <dbl>   <dbl>
##  1 1       6.13   6.47   7.16   7.38   7.77   2.38   6.79   5.73   7.50    4.48
##  2 2       5.24   4.42   1.39   4.84   5.42   5.89   7.04   6.97   3.29    4.62
##  3 3       4.01   5.90   4.46   4.55   4.87   1.53   4.92   5.57   3.93    5.85
##  4 4       4.99   3.40   7.63   4.81   6.35   6.31   2.60   5.89   4.88    3.90
##  5 5       6.85   4.58   5.42   5.30   6.19   4.55   6.34   4.14   6.05    4.52
##  6 6       5.16   4.48   7.32   6.24   5.88   7.29   4.80   3.59   5.84    4.36
##  7 7       5.87   6.66   4.29   4.24   6.19   4.40   3.78   4.14   6.11    4.03
##  8 8       6.69   7.12   8.37   8.10   6.51   2.85   6.84   8.31   6.29    3.77
##  9 9       5.05   2.65   6.61   5.87   6.54   5.19   5.43   6.27   4.87    3.73
## 10 10      6.54   4.56   4.41   5.32   5.50   3.55   5.66   5.07   4.38    5.97
## # ... with 310 more rows, and 5 more variables: item_11 <dbl>, item_12 <dbl>,
## #   item_13 <dbl>, item_14 <dbl>, item_15 <dbl>

In der ersten Spalte (id) sind die Probanden-IDs eingetragen, in den folgenden Spalten die Einschätzung jedes Probanden zu den obigen Aussagen des Fragebogens.

EDA

Aus den Dimensionen des Datensatzes geht hervor, dass wir eine Stichprobengröße von \(N = 320\) haben, was gut ist. Zudem ist es immer eine gute Idee, sich die Korrelationen der Variablen untereinander anzusehen – am besten in einem Korrelogramm. Zunächst werden wir aber einmal die Spalte id los, die zwar für die Dateneingabe sinnvoll und nützlich ist, in den weiteren Analysen aber nur stört.

party_raw <- party %>% 
  select(-id)

party_raw

## # A tibble: 320 x 15
##    item_1 item_2 item_3 item_4 item_5 item_6 item_7 item_8 item_9 item_10
##     <dbl>  <dbl>  <dbl>  <dbl>  <dbl>  <dbl>  <dbl>  <dbl>  <dbl>   <dbl>
##  1   6.13   6.47   7.16   7.38   7.77   2.38   6.79   5.73   7.50    4.48
##  2   5.24   4.42   1.39   4.84   5.42   5.89   7.04   6.97   3.29    4.62
##  3   4.01   5.90   4.46   4.55   4.87   1.53   4.92   5.57   3.93    5.85
##  4   4.99   3.40   7.63   4.81   6.35   6.31   2.60   5.89   4.88    3.90
##  5   6.85   4.58   5.42   5.30   6.19   4.55   6.34   4.14   6.05    4.52
##  6   5.16   4.48   7.32   6.24   5.88   7.29   4.80   3.59   5.84    4.36
##  7   5.87   6.66   4.29   4.24   6.19   4.40   3.78   4.14   6.11    4.03
##  8   6.69   7.12   8.37   8.10   6.51   2.85   6.84   8.31   6.29    3.77
##  9   5.05   2.65   6.61   5.87   6.54   5.19   5.43   6.27   4.87    3.73
## 10   6.54   4.56   4.41   5.32   5.50   3.55   5.66   5.07   4.38    5.97
## # ... with 310 more rows, and 5 more variables: item_11 <dbl>, item_12 <dbl>,
## #   item_13 <dbl>, item_14 <dbl>, item_15 <dbl>
…
