Faktorielle ANOVA
…
Beispiel

Jeder liebt es, so viel ist klar. Aber mögen alle Personen jede Sorte Eis gleich gerne? Pfiffige Forscher haben sich an einem schönen Sommertag an einer Eisdile in der Dortmunder Innenstadt platziert und viele zufällig vorbeikommende Passanten vier Eissorten kosten lassen. Die Probanden konnten dann auf einer Skala von 0 – 20 angeben, wie lecker sie die eben probierte Eissorte fanden. Ein höherer Wert bedeutet eine bessere Bewertung. Wir wollen herausfinden, ob die Sorte selbst und das Geschlecht des Verkosters einen Einfluss auf den Geschmack hat. Wichtig ist dabei zu bachten, dass jeder Passant nur eine Eissorte probiert hat.

Klassisch

Die Daten zu diesem Experiment sind in der Datei ice_cream.sav. In der ersten Spalte (flavor) ist der Geschmack eingetragen, in der zweiten Spalte (sex) das Geschlecht des Verkosters. In der dritten Spalte finden wir unsere abhängige Variable yumminess. Wir berechnen hier also eine 4 \(\times\) 2 faktorielle ANOVA mit den Zwischensubjektfaktoren “Eissorte” mit vier Fakorstufen (“Vanilla”, “Chocolate”, “Cookie” und “Champagne”) und “Geschlecht” mit zwei Faktorstufen (“Female” und “Male”).

ice_cream <- read_spss("data/ice_cream.sav")

ice_cream <- ice_cream %>% mutate_if(is.labelled, as_factor)

ice_cream

## # A tibble: 295 x 4
##    id    flavor    sex    yumminess
##    <chr> <fct>     <fct>      <dbl>
##  1 1     Champagne Female        14
##  2 2     Vanilla   Female        19
##  3 3     Champagne Female        16
##  4 4     Chocolate Female        17
##  5 5     Chocolate Female        16
##  6 6     Vanilla   Male          16
##  7 7     Vanilla   Female        17
##  8 8     Vanilla   Male          18
##  9 9     Cookie    Male          13
## 10 10    Champagne Female        13
## # ... with 285 more rows
…
