Konfirmatorische Faktorenanalyse
…
Beispiel

Bei der explorativen Faktorenanalyse haben wir bereits den Fragebogen zur Freude an Festivitäten (FFF) kennengelernt, bei dem wir eine zugrundeliegende Struktur mit drei latenten Faktoren vermuten. Diese drei Faktoren waren “Vorfreude”, “Tanzen” und “Geselligkeit”. Nun sind wir auf mehrere Feiern und in Clubs im Raum Dortmund gegangen und haben den Fragebogen 442 Probanden erneut ausfüllen lassen. Nun wollen wir überprüfen, ob die in der ersten Stichprobe gefundene Faktorenstruktur auch für diese Stichprobe angemessen ist.

Die neuen Daten finden wir in der Datei party_people.sav im GitHub-Repository, oder als party_people im costatcompanion.

party_people

## # A tibble: 442 x 16
##    id    item_1 item_2 item_3 item_4 item_5 item_6 item_7 item_8 item_9 item_10
##    <chr>  <dbl>  <dbl>  <dbl>  <dbl>  <dbl>  <dbl>  <dbl>  <dbl>  <dbl>   <dbl>
##  1 1       5.95   3.96   3.11   4.29   5.69   5.53   7.36   4.82   4.07    6.14
##  2 2       4.77   2.74   3.80   4.93   4.61   6.83   6.32   6.67   4.70    2.64
##  3 3       5.34   6.44   6.98   5.24   3.91   3.30   4.90   5.41   4.60    6.24
##  4 4       3.25   4.61   5.49   2.83   5.03   5.52   2.17   2.72   3.39    3.06
##  5 5       7.17   6.64   6.28   6.78   5.03   5.17   4.16   5.53   6.29    7.92
##  6 6       4.29   7.51   6.01   8.74   7.42   3.43   5.67   6.31   7.90   10   
##  7 7       1.60   2.91   2.99   5.16   4.29   4.16   5.06   6.58   3.48    5.92
##  8 8       6.20   6.50   3.48   3.33   4.70   3.58   4.94   1.18   4.49    3.72
##  9 9       6.18   6.05   5.44   5.94   4.28   4.53   3.99   4.13   5.43    6.18
## 10 10      3.77   6.63   6.01   5.01   5.06   3.65   2.59   3.46   5.26    6.11
## # ... with 432 more rows, and 5 more variables: item_11 <dbl>, item_12 <dbl>,
## #   item_13 <dbl>, item_14 <dbl>, item_15 <dbl>
…
Vorgehen

Eine gute Übersicht über das Vorgehen ist bei Schreiber (2017, S. 635) dargestellt.

EDA

Eine gute Idee ist es, wie immer, sich die Daten vorher einmal anzuschauen. Um uns die Arbeit einfacher zu machen, entfernen wir aber zunächst wieder die Probanden ID.

party_people_raw <- party_people %>% 
  select(-id)

party_people_raw

## # A tibble: 442 x 15
##    item_1 item_2 item_3 item_4 item_5 item_6 item_7 item_8 item_9 item_10
##     <dbl>  <dbl>  <dbl>  <dbl>  <dbl>  <dbl>  <dbl>  <dbl>  <dbl>   <dbl>
##  1   5.95   3.96   3.11   4.29   5.69   5.53   7.36   4.82   4.07    6.14
##  2   4.77   2.74   3.80   4.93   4.61   6.83   6.32   6.67   4.70    2.64
##  3   5.34   6.44   6.98   5.24   3.91   3.30   4.90   5.41   4.60    6.24
##  4   3.25   4.61   5.49   2.83   5.03   5.52   2.17   2.72   3.39    3.06
##  5   7.17   6.64   6.28   6.78   5.03   5.17   4.16   5.53   6.29    7.92
##  6   4.29   7.51   6.01   8.74   7.42   3.43   5.67   6.31   7.90   10   
##  7   1.60   2.91   2.99   5.16   4.29   4.16   5.06   6.58   3.48    5.92
##  8   6.20   6.50   3.48   3.33   4.70   3.58   4.94   1.18   4.49    3.72
##  9   6.18   6.05   5.44   5.94   4.28   4.53   3.99   4.13   5.43    6.18
## 10   3.77   6.63   6.01   5.01   5.06   3.65   2.59   3.46   5.26    6.11
## # ... with 432 more rows, and 5 more variables: item_11 <dbl>, item_12 <dbl>,
## #   item_13 <dbl>, item_14 <dbl>, item_15 <dbl>
…
Diesen Output kann man mit dem Paket broom natürlich auch tidy machen, um sie weiter verwenden zu können, oder um mit glance() einen schnellen Blick auf die Fit-Measures zu kriegen.

library(broom)

tidy(party_cfa)

## # A tibble: 36 x 9
##    term        op    estimate std.error statistic p.value std.lv std.all std.nox
##    <chr>       <chr>    <dbl>     <dbl>     <dbl>   <dbl>  <dbl>   <dbl>   <dbl>
##  1 anticipati~ =~       1        0          NA         NA  1.29    0.728   0.728
##  2 anticipati~ =~       0.853    0.0691     12.3        0  1.10    0.648   0.648
##  3 anticipati~ =~       0.633    0.0598     10.6        0  0.819   0.553   0.553
##  4 anticipati~ =~       0.835    0.0679     12.3        0  1.08    0.645   0.645
##  5 anticipati~ =~       0.931    0.0697     13.4        0  1.20    0.705   0.705
##  6 anticipati~ =~      -0.826    0.0652    -12.7        0 -1.07   -0.665  -0.665
##  7 dancing =~~ =~       1        0          NA         NA  1.14    0.691   0.691
##  8 dancing =~~ =~       0.766    0.0802      9.55       0  0.875   0.560   0.560
##  9 dancing =~~ =~       1.09     0.0988     11.1        0  1.25    0.689   0.689
## 10 dancing =~~ =~       0.953    0.0888     10.7        0  1.09    0.654   0.654
## # ... with 26 more rows
…
