Korrelation mit Messwiederholung
…
library(tidyverse)
library(haven)
library(rstatix)
library(costatcompanion)
library(rmcorr)

Beispiel

Ein klassisches Beispiel ist die “Tipp-Leistung” auf einer Tastatur. Wir könnten uns zufällig ein paar Probanden, üblicherweise Psychologie-Studenten, ins Labor einladen und ihnen über einen Bildschirm eine Liste von zufälligen Wörtern präsentieren, die sie über eine Computer-Tastatur eingeben sollen. Das lassenw ir usnere Probanden jeweils fünf Mal machen. Dabei messen wir die Geschwindigkeit, mit der sich das machen (in Tastenanschlägen pro Minute) und die Akkuratheit (in Prozent). Eine Akkuratheit von 100 bedeutet dabei, dass keine Fehler gemacht wurden, dass also eben alles akkurat und richtig eingegeben wurde.

Die Daten dazu finden wir entweder in der SPSS-Datei typing.sav oder im Paket costatcompanion unter demselben Namen. Der Datensatz enthält zunächst die Variable id, in der die Probanden-ID eingetragen wurde, dann die Variable trial, die angibt, um den wievielten Verusch es sich für diesen Probanden handelt. speed ist die Geschwindigkeit eines Probanden pro Durchlauf in Tastenanschlägen pro Minute. Schließlich finden wir die “Leistung” des Probanden in der Spalte accuracy.

costatcompanion::typing

## # A tibble: 435 x 4
##    id    trial speed accuracy
##    <chr> <int> <dbl>    <dbl>
##  1 1         1  242.     48.4
##  2 1         2  242.     48.1
##  3 1         3  236.     50.2
##  4 1         4  230.     50.1
##  5 1         5  237.     48.4
##  6 2         1  251.     47.3
##  7 2         2  248.     49.0
##  8 2         3  250.     47.0
##  9 2         4  243.     48.6
## 10 2         5  239.     49.2
## # ... with 425 more rows
…
## # A tibble: 2 x 13
##   variable     n   min   max median    q1    q3   iqr   mad  mean    sd    se
##   <chr>    <dbl> <dbl> <dbl>  <dbl> <dbl> <dbl> <dbl> <dbl> <dbl> <dbl> <dbl>
## 1 accuracy   435  23.9  100    56.2  44.5  72.0  27.6  20.7  59.1  20.0 0.957
## 2 speed      435  60.3  548.  288.  206.  404.  198.  137.  304.  122.  5.83 
## # ... with 1 more variable: ci <dbl>

# Anzahl der Probanden und Messungen
typing %>% 
  count(id, sort = TRUE)

## # A tibble: 87 x 2
##    id        n
##    <chr> <int>
##  1 1         5
##  2 10        5
##  3 11        5
##  4 12        5
##  5 13        5
##  6 14        5
##  7 15        5
##  8 16        5
##  9 17        5
## 10 18        5
## # ... with 77 more rows
…
Berichten

We found a negative, significant repeated measures correlation between speed and accuracy, indicating less accuracy with greater speed in a typing task, \(r_{rm}(347) = -.80, 95\% \text{CI} [-.83, -.76], p < .001\).

Aus der Praxis

Claus et al. (2020) haben sich den Placebo-Effekt von Antidepressiva vorgenommen. Ein Großteil, wenn nicht sogar die gesamte der Wirkung, von Antidepressiva ist nämlich auf den Placebo-Effekt zurückzuführen (Kirsch, 2010; Moncrieff et al., 2004; Whitaker, 2015). Sollte dem tatsächlich so sein, dann könnte man die Wirkung von Antidepressiva deutlich erhöhen, indem man den Placebo-Effekt an sich verstärkt. Genau das versuchten die Autoren, indem sie eine kognitiv-verhaltenstherapeutische Intervention entwickelten, die genau diesen Effekt für Patienten mit uniplorarer depressiver STörung direkt verstärken sollte. Diese Intervention testeten sie im Rahmen einer randomisierten Kontrollstudie auf ihre Wirksamkeit. Einer der treibenden Kräfte des Placebo-Effekts scheint die Erwartung eines Patienten zu sein, auf jeden Fall eine Verbesserung zu erleben (???). Diese Erwartung, so wie andere klinische Maße, erhoben sie in vier aufeinanderfolgenden Wochen an ihren Patienten.

Die Daten lassen sich in der Datei placebo_amplification.sav oder Paket costatcompanion unter demselben Namen. Die Erwartung eines Patienten, durch die Therapie sicher eine Verbesserung zu erwarten, ist in der Variable exp_certain zu finden und kann Werte zwischen 0 und 100 annehmen (Überzeugungsrating in Prozent). Die Autoren interessierte vor allen Dingen die selbst eingeschätzte Depressivität der Patienten, die sie mit Becks Depressions-Inventar (BDI) erhoben haben, dessen Daten in der Variable bdi zu finden sind.

costatcompanion::placebo_amplification

## # A tibble: 172 x 13
##    id      age sex   treatment measurement exp_size exp_certain exp_speed cgi_s
##    <chr> <dbl> <fct> <fct>     <chr>          <dbl>       <dbl>     <dbl> <dbl>
##  1 1        54 Male  TAU       1               74.0        12.5      92.7     6
##  2 1        54 Male  TAU       2               79.8        13.8      88.3     4
##  3 1        54 Male  TAU       3               85.1        14.9      86.2     4
##  4 1        54 Male  TAU       4               29.8        16.0      70.2     4
##  5 2        52 Fema~ EG        1               75.9        61.0      45.3     5
##  6 2        52 Fema~ EG        2               71.3        56.4      41.5     5
##  7 2        52 Fema~ EG        3               67.0        54.3      64.9     3
##  8 2        52 Fema~ EG        4               64.9        59.6      80.8     3
##  9 3        54 Male  EG        1               92.6        71.6     100       6
## 10 3        54 Male  EG        2               79.8        94.7     100       5
## # ... with 162 more rows, and 4 more variables: bdi <dbl>, shaps <dbl>,
## #   who <dbl>, hamd <dbl>
…
