Korrelation
…
Beispiel 1

Wir sind mitten im heißen Sommer, lange Tage, laue Nächte, nach dem Duschen hat man Schweiß auf der Stirn und das letzte Mal, dass Querlüften funktioniert hat, ist schon einige Wochen her. Was könnten wir nun machen, um uns abukühlen? Richtig, wir könnten ins Freibad gehen! Mit einem dahinschmelzenden Calippo in der Hand fragt sich aber der geübte Statistiker: Ist es eigentlich jeden Tag so voll? Oder hängt die Anzahl der Schwimmer in diesem Freibad mit irgendetwas zusammen? Sofort fragt er den Kassenwart nach Daten, Daten, Daten! Und siehe da, tatsächlich führt das Freibad eine Liste darüber, an welchem Tag, wie viele Besucher kamen, inklusive einiger anderer Faktoren, wie z.B. der Durchschnitts-Temperatur.

Klassisch

Den Datensatz water_park finden wir im Paket costatcompanion. In der ersten Spalte (day_id) finden wir eine individuelle ID des beobachteten Tages (in zufälliger Reihenfolge). Nachfolgend finden wir vier Variablen, die an jedem Tag gemessen wurden. Dazu zählen die Durchschnitts-Temperatur (temperature), die Anzahl der Schwimmer im Schwimmbecken (swimmers), den Tages-Umsatz des Freibad-Kiosks in Euro (sales) und die Anzahl der Schlägereien, wegen der die Polizei gerufen werden musste (beatings).

costatcompanion::water_park

## # A tibble: 100 x 5
##    day_id temperature swimmers sales beatings
##    <chr>        <dbl>    <dbl> <dbl>    <dbl>
##  1 1             28.9      106  1554        7
##  2 2             34.4      142  2261        7
##  3 3             25.1       72  1232        4
##  4 4             21.8       50   823        5
##  5 5             39        167  2661       10
##  6 6             21.4       81  1025        4
##  7 7             26.7      111  1895        7
##  8 8             25        128  2153        8
##  9 9             12.7       37   534        1
## 10 10            16.3       56   829        1
## # ... with 90 more rows
…
