Lineare Regression
…
Beispiel mit einem Prädiktor

Im Kapitel zur Berechnung und Interpretationen der Korrelation haben wir uns den Datensatz eines kleinen Freibads angeschaut, in dem zu verschiedenen Tagen im Jahr sowohl die Besucherzahl, als auch verschiedene andere Variablen eingetragen waren. Wir haben bereits herausgefunden, dass die Temperatur an einem bestimmten Tag sehr eng mit der Anzahl der Schwimmer im Schwimmbecken korrelierte, aber können wir diesen Zusammenhang genauer beschreiben? Und wie groß ist dieser Zusammenhang? Nur weil es einen starken Zusammenhang gibt, muss das ja nicht bedeuten, dass er auch groß ist.

Klassisch

Wir benutzen denselben Datensatz, den wir auch bei den Korrelationen kennengelernt haben. Den Datensatz water_park finden wir also im Paket costatcompanion. In der ersten Spalte (day_id) finden wir eine individuelle ID des beobachteten Tages (in zufälliger Reihenfolge). Nachfolgend finden wir vier Variablen, die an jedem Tag gemessen wurden. Dazu zählen die Durchschnitts-Temperatur (temperature), die Anzahl der Schwimmer im Schwimmbecken (swimmers), den Tages-Umsatz des Freibad-Kiosks in Euro (sales) und die Anzahl der Schlägereien, wegen der die Polizei gerufen werden musste (beatings).

Wir interessieren uns für den Zusammenhang zwischen der gemessenen Temperatur mit der Anzahl der beobachteten Schwimmer im Schwimmbecken.

costatcompanion::water_park

## # A tibble: 100 x 5
##    day_id temperature swimmers sales beatings
##    <chr>        <dbl>    <dbl> <dbl>    <dbl>
##  1 1             28.9      106  1554        7
##  2 2             34.4      142  2261        7
##  3 3             25.1       72  1232        4
##  4 4             21.8       50   823        5
##  5 5             39        167  2661       10
##  6 6             21.4       81  1025        4
##  7 7             26.7      111  1895        7
##  8 8             25        128  2153        8
##  9 9             12.7       37   534        1
## 10 10            16.3       56   829        1
## # ... with 90 more rows
…
Angaben zur Modellgüte können wir mit glance() auslesen. Hier bekommen wir sogar wesentlich mehr Informationen als durch die normale summary().

glance(water_model)

## # A tibble: 1 x 12
##   r.squared adj.r.squared sigma statistic  p.value    df logLik   AIC   BIC
##       <dbl>         <dbl> <dbl>     <dbl>    <dbl> <dbl>  <dbl> <dbl> <dbl>
## 1     0.739         0.737  15.4      278. 2.25e-30     1  -414.  834.  842.
## # ... with 3 more variables: deviance <dbl>, df.residual <int>, nobs <int>

Residuen, Distanzen und ähnliches werden mit augment() an den ursprünglichen Datensatz angehängt.

augment(water_model)

## # A tibble: 100 x 8
##    swimmers temperature .fitted .resid .std.resid   .hat .sigma  .cooksd
##       <dbl>       <dbl>   <dbl>  <dbl>      <dbl>  <dbl>  <dbl>    <dbl>
##  1      106        28.9   117.  -10.7      -0.700 0.0142   15.4 0.00354 
##  2      142        34.4   140.    1.67      0.111 0.0347   15.5 0.000220
##  3       72        25.1   100.  -28.4      -1.85  0.0100   15.2 0.0173  
##  4       50        21.8    86.2 -36.2      -2.37  0.0129   15.0 0.0366  
##  5      167        39     160.    6.91      0.464 0.0649   15.4 0.00748 
##  6       81        21.4    84.5  -3.47     -0.227 0.0136   15.5 0.000357
##  7      111        26.7   107.    3.76      0.245 0.0108   15.5 0.000329
##  8      128        25      99.9  28.1       1.83  0.0100   15.2 0.0170  
##  9       37        12.7    47.1 -10.1      -0.674 0.0525   15.4 0.0126  
## 10       56        16.3    62.6  -6.56     -0.433 0.0313   15.5 0.00303 
## # ... with 90 more rows
…
Robust

Folgt.

Beispiel mit mehreren Prädiktoren

Einige aufmerksame Leser werden bereits festgestelt haben, dass es im Datensatz water_park mehr als nur zwei Variablen (swimmers und temperature) gibt. Es findet sich auch eine Variable sales, mit der die Umsätze des Freibad-Kiosks in Euro festgehalten ist, sowie die Variable beatings, in der die Anzahl der Schlägereien aufgeführt ist, wegen derer die Polizei gerufen werden musste.

water_park

## # A tibble: 100 x 5
##    day_id temperature swimmers sales beatings
##    <chr>        <dbl>    <dbl> <dbl>    <dbl>
##  1 1             28.9      106  1554        7
##  2 2             34.4      142  2261        7
##  3 3             25.1       72  1232        4
##  4 4             21.8       50   823        5
##  5 5             39        167  2661       10
##  6 6             21.4       81  1025        4
##  7 7             26.7      111  1895        7
##  8 8             25        128  2153        8
##  9 9             12.7       37   534        1
## 10 10            16.3       56   829        1
## # ... with 90 more rows
…
