Mixed ANOVA
…
Beispiel

Wir interessieren uns für den Verlauf des Stress-Niveaus von Studenten kurz vor, während und nach einer Klausur. Dabei betrachten wir gleichzeitig zwei Gruppen, nämlich jene Studenten, die sich auf die Klausur explizit vorbereitet haben und jene, die lieber den botanischen Garten der Ruhr-Universität Bochum, oder die Sonne am Aasee in Münster genossen haben.

Klassisch

Die Daten finden wir im costatcompanion als exam_stress, oder, wie immer, als SPSS-Datei im Daten-Ordner des GitHub Repositories. Der Datensatz enthält vier Variablen: Die Probanden-ID (id), den Hinweis darauf, ob sich derjenige Proband auf die Klausur vorbereitet hat (preparation, mit den Faktorstufen “No” und “Yes”), den Zeitpunkt der Messung (time, mit den Faktorstufen “Before”, “During” und “After”) und das Stress-Niveau auf einer Skala von 0 – 50 (stress). Dabei bedeuten niedrige Werte wenig Stress und hohe Werte viel Stress. Wir berechnen also eine 2 \(\times\) 3 gemischte ANOVA mit dem Zwischensubjektfaktor “Vorbereitung” mit zwei Faktorstufen und dem Innersubjektfaktor “Zeit” mit drei Faktorstufen.

costatcompanion::exam_stress

## # A tibble: 288 x 4
##       id preparation time   stress
##    <int> <fct>       <fct>   <dbl>
##  1     1 No          Before     39
##  2     1 No          During     43
##  3     1 No          After      44
##  4     2 Yes         Before     38
##  5     2 Yes         During     30
##  6     2 Yes         After      13
##  7     3 No          Before     33
##  8     3 No          During     49
##  9     3 No          After      38
## 10     4 Yes         Before     36
## # ... with 278 more rows
…
Non-parametrisch

Gibt es nicht.

Aus der Praxis

Ryan et al. (2013) untersuchten unter anderem, welche Faktoren die Feindseligkeit gegenüber einem Insekt beeinflussen. Dazu zeigten sie einer Reihe von Probanden Bilder von Insekten und ließen deren Feindseligkeit einschätzen. Dabei haben sie die Insekten aufgeteilt in jene, die eher wenig oder total ekelig waren, und jene, die wenig oder total angsterregend waren. Zudem erhoben sie das Geschlecht der Probanden. Die Daten sind aus der JASP Data Library (JASP Team, 2019) und in der Datei bugs.csv

Klassisch

read_csv("data/bugs.csv")

## # A tibble: 93 x 8
##    Subject Gender Region Education `Lo D, Lo F` `Lo D, Hi F` `Hi D, Lo F`
##      <dbl> <chr>  <chr>  <chr>            <dbl>        <dbl>        <dbl>
##  1       1 Female North  some               6            6            9  
##  2       2 Female North  advance           10           NA           10  
##  3       3 Female Europe college            5           10           10  
##  4       4 Female North  college            6            9            6  
##  5       5 Female North  some               3            6.5          5.5
##  6       6 Female Europe some               2            0.5          7.5
##  7       7 Female North  some              10           10           10  
##  8       8 Female North  high              10           10            9  
##  9       9 Female North  high               9.5          9.5          6  
## 10      10 Female Other  high               8.5         10            7  
## # ... with 83 more rows, and 1 more variable: `Hi D, Hi F` <dbl>
…
bugs

## # A tibble: 372 x 5
##    subject gender disgust fear  hostility
##      <dbl> <fct>  <fct>   <fct>     <dbl>
##  1       1 Female low     low           6
##  2       1 Female low     high          6
##  3       1 Female high    low           9
##  4       1 Female high    high         10
##  5       2 Female low     low          10
##  6       2 Female low     high         NA
##  7       2 Female high    low          10
##  8       2 Female high    high         10
##  9       3 Female low     low           5
## 10       3 Female low     high         10
## # ... with 362 more rows
…
