Post-hoc-Tests
…
Für die anderen Tests sieht es in R schlecht aus. Dafür bietet R viele weitere Tests, die stattdessen eingesetzt werden können. Weitere Informationen dazu findet man bei Field (2018).

Beispiel

Für das Beispiel der einfaktoriellen ANOVA hatten wir uns einen fiktiven Datensatz zu Besuchern des Phantasialandes angeschaut. In diesem Datensatz finden wir die empfundene Freude von 186 Besuchern des Phantasialandes (Variable joy), eingeteilt in Gruppen von Handgepäck-Typ. Wir haben Besucher ohne Handgepäck, mit leichtem und schwerem Rucksack und jenen, die einen Bollerwagen ziehen müssen. Mit der einfaktoriellen ANOVA haben wir bereits herausgefunden, dass sich diese Gruppen hinsichtlich ihrer Freude signifikant unterscheiden.

phantasialand <- read_spss("data/phantasialand.sav") %>%
  mutate_if(is.labelled, as_factor)

# Datensatz
phantasialand

## # A tibble: 186 x 3
##    id    backpack   joy
##    <chr> <fct>    <dbl>
##  1 1     Light        5
##  2 2     Light        7
##  3 3     Handcart     3
##  4 4     Heavy        6
##  5 5     Heavy        3
##  6 6     Heavy        6
##  7 7     Handcart     4
##  8 8     None        10
##  9 9     None         9
## 10 10    Handcart     5
## # ... with 176 more rows
…
