t-Test bei unabhängigen Stichproben
…
Beispiel

Es wird spannend, denn wir betrachten die Rivalität der Häuser Griffyndor und Slytherin. Dem Haus Griffyndor werden Tapferkeit, Kühnheit und Ritterlichkeit zugeschrieben – dem Haus Slytherin, naja, eher nicht. Im Datensatz chivalry.sav sind die Ergebnisse eines Persönlichkeitstests zu finden, den alle in Hogwarts eingeschriebenen Bewohner dieser zwei Häuser durchführten, und der das Konstrukt “Ritterlichkeit” erfasst. Der Gesamtwert dieses Tests kann Werte zwischen 0 (keine Richtterlichkeit vorhanden) und 110 (nimmt den Kampf gegen Voldemort auf und empfängt den Tod als einen alten Freund) annehmen.

chivalry_data <- read_spss("data/chivalry.sav")

chivalry_data <- chivalry_data %>% mutate(house = as_factor(house))

chivalry_data

## # A tibble: 80 x 3
##    id    house      chivalry
##    <chr> <fct>         <dbl>
##  1 1     Gryffindor       95
##  2 2     Gryffindor       75
##  3 3     Gryffindor       95
##  4 4     Gryffindor       95
##  5 5     Gryffindor       83
##  6 6     Gryffindor       92
##  7 7     Gryffindor       89
##  8 8     Gryffindor       98
##  9 9     Gryffindor       86
## 10 10    Gryffindor       97
## # ... with 70 more rows
…
