t-Test bei abhängigen Stichproben
…
Beispiel

Den Bewohnern des Hogwarts-Hauses Hufflepuff wird ausgesprochene Geduld nachgesagt. Da ist es nicht verwunderlich, dass die Hauslehrerin Hufflepuffs Professor Pomona Sprout ist, die die langwierige Kräuterkunde unterrichtet. Ein ambitionierter Psychologie-Student hat sich gefragt, ob die Geduld der Mitglieder Hufflepuffs über das Schuljahr in Hogwarts eigentlich zunimmt. Man könnte annehmen, dass die Schüler zu Beginn des Schuljahres weniger geduldig sind, aber während des Schuljahres mit Aufgaben und Herausvorderungen konfrontiert werden, die ihre Geduld wachsen lassen. Dieser ambitionierte Psychologie-Student hat daraufhin zu Beginn und am Ende des Schuljahres alle Hufflepuffs hinsichtlich ihrer Geduld untersucht und uns den Datensatz patience.sav überlassen. Höhere Werte bedeuten eine höhere Geduld des Schülers.

patience_data <- read_spss("data/patience.sav")

patience_data <- patience_data %>% 
  mutate(measurement = as_factor(measurement))

patience_data

## # A tibble: 106 x 3
##    id    measurement patience
##    <chr> <fct>          <dbl>
##  1 1     Begin             44
##  2 2     Begin             24
##  3 3     Begin             44
##  4 4     Begin             44
##  5 5     Begin             32
##  6 6     Begin             41
##  7 7     Begin             38
##  8 8     Begin             47
##  9 9     Begin             35
## 10 10    Begin             46
## # ... with 96 more rows
…
