t-Test bei einer Stichprobe
…
Alle Berechnungen und Abbildungen können wir mit unseren Standardpaketen durchführen. Wir benötigen das tidyverse zum Data Wrangling und zur Visualisierung der Daten. haven benötigen wir für den Import von SPSS-Dateien und rstatix für statistische Analysen. Wenn man sich den Import und das Bereinigen der Daten sparen möchte (Schritte, die man dennoch üben sollte), findet man die Daten auch im Paket costatcompanion.

library(tidyverse)
library(haven)
library(rstatix)
library(costatcompanion)

Beispiel

Das Haus Ravenclaw soll durch ausgesprochene Intelligenz punkten. Nun gut, gehen wir dem einmal auf den Grund. Der Intelligenzquotient (IQ) ist so normiert, dass sein Mittelwert normalerweise 100 beträgt und die Standardbweichung 15. Wir haben IQ-Daten von Mitgliedern des Hauses Ravenclaws im Datensatz ravenclaw.sav.

costatcompanion::ravenclaw

## # A tibble: 48 x 2
##    id    intelligence
##    <chr>        <dbl>
##  1 1              125
##  2 2               88
##  3 3              124
##  4 4              125
##  5 5              102
##  6 6              119
##  7 7              114
##  8 8              130
##  9 9              108
## 10 10             130
## # ... with 38 more rows
…
