Tidyverse
…
tibble behebt das Problem und liefert übersichtliche Datensätze:

as_tibble(faithful)

## # A tibble: 272 x 2
##    eruptions waiting
##        <dbl>   <dbl>
##  1      3.6       79
##  2      1.8       54
##  3      3.33      74
##  4      2.28      62
##  5      4.53      85
##  6      2.88      55
##  7      4.7       88
##  8      3.6       85
##  9      1.95      51
## 10      4.35      85
## # ... with 262 more rows
…
## cols(
##   mpg = col_double(),
##   cyl = col_double(),
##   disp = col_double(),
##   hp = col_double(),
##   drat = col_double(),
##   wt = col_double(),
##   qsec = col_double(),
##   vs = col_double(),
##   am = col_double(),
##   gear = col_double(),
##   carb = col_double()
## )

## # A tibble: 32 x 11
##      mpg   cyl  disp    hp  drat    wt  qsec    vs    am  gear  carb
##    <dbl> <dbl> <dbl> <dbl> <dbl> <dbl> <dbl> <dbl> <dbl> <dbl> <dbl>
##  1  21       6  160    110  3.9   2.62  16.5     0     1     4     4
##  2  21       6  160    110  3.9   2.88  17.0     0     1     4     4
##  3  22.8     4  108     93  3.85  2.32  18.6     1     1     4     1
##  4  21.4     6  258    110  3.08  3.22  19.4     1     0     3     1
##  5  18.7     8  360    175  3.15  3.44  17.0     0     0     3     2
##  6  18.1     6  225    105  2.76  3.46  20.2     1     0     3     1
##  7  14.3     8  360    245  3.21  3.57  15.8     0     0     3     4
##  8  24.4     4  147.    62  3.69  3.19  20       1     0     4     2
##  9  22.8     4  141.    95  3.92  3.15  22.9     1     0     4     2
## 10  19.2     6  168.   123  3.92  3.44  18.3     1     0     4     4
## # ... with 22 more rows

dplyr und tidyr

Mit dplyr wird das data wrangling wesentlich einfacher als mit base R. Die fünf Grundbefehle lassen sich schnell lernen und sind einfach in der Anwendung. So lassen sich beispielsweise die beiden Variablen mpg und disp aus dem Datensatz mtcars extrahieren:

as_tibble(select(mtcars, mpg, disp))

## # A tibble: 32 x 2
##      mpg  disp
##    <dbl> <dbl>
##  1  21    160 
##  2  21    160 
##  3  22.8  108 
##  4  21.4  258 
##  5  18.7  360 
##  6  18.1  225 
##  7  14.3  360 
##  8  24.4  147.
##  9  22.8  141.
## 10  19.2  168.
## # ... with 22 more rows
…
